…
# Find best models
lasso_cv %>% collect_metrics(.metric = 'rmse') %>% arrange(mean)
```

```
## # A tibble: 202 x 7
##    penalty .metric .estimator   mean     n std_err .config               
##      <dbl> <chr>   <chr>       <dbl> <int>   <dbl> <chr>                 
##  1  0.01   mae     standard   0.0848     5 0.00225 Preprocessor1_Model002
##  2  0.0118 mae     standard   0.0855     5 0.00223 Preprocessor1_Model003
##  3  0.0138 mae     standard   0.0864     5 0.00224 Preprocessor1_Model004
##  4  0.0163 mae     standard   0.0876     5 0.00222 Preprocessor1_Model005
##  5  0.0192 mae     standard   0.0895     5 0.00221 Preprocessor1_Model006
##  6  0.0226 mae     standard   0.0922     5 0.00232 Preprocessor1_Model007
##  7  0.0266 mae     standard   0.0958     5 0.00250 Preprocessor1_Model008
##  8  0.0313 mae     standard   0.101      5 0.00269 Preprocessor1_Model009
##  9  0.0368 mae     standard   0.106      5 0.00287 Preprocessor1_Model010
## 10  0.0433 mae     standard   0.112      5 0.00298 Preprocessor1_Model011
## # ... with 192 more rows
```
…
# CV
cv_lasso = workflow_net %>% 
	tune_grid(
		folds,
		grid = expand_grid(mixture = alphas, penalty = lambdas),
		metrics = metric_set(rmse, mae))

# Find best models
metircs_cv_lasso = cv_lasso %>% collect_metrics() %>% arrange(mean)
metircs_cv_lasso
```

```
## # A tibble: 2,200 x 8
##    penalty mixture .metric .estimator   mean     n std_err .config              
##      <dbl>   <dbl> <chr>   <chr>       <dbl> <int>   <dbl> <chr>                
##  1  0.01       0.7 mae     standard   0.0843     5 0.00244 Preprocessor1_Model0~
##  2  0.01       0.6 mae     standard   0.0844     5 0.00251 Preprocessor1_Model0~
##  3  0.01       0.8 mae     standard   0.0844     5 0.00236 Preprocessor1_Model0~
##  4  0.0118     0.6 mae     standard   0.0845     5 0.00244 Preprocessor1_Model0~
##  5  0.0118     0.5 mae     standard   0.0845     5 0.00252 Preprocessor1_Model0~
##  6  0.01       0.9 mae     standard   0.0846     5 0.00230 Preprocessor1_Model0~
##  7  0.0118     0.7 mae     standard   0.0846     5 0.00235 Preprocessor1_Model0~
##  8  0.01       0.2 mae     standard   0.0848     5 0.00248 Preprocessor1_Model0~
##  9  0.0138     0.5 mae     standard   0.0848     5 0.00245 Preprocessor1_Model0~
## 10  0.0138     0.4 mae     standard   0.0848     5 0.00253 Preprocessor1_Model0~
## # ... with 2,190 more rows
```
…
# CV
ll_cv = ll_wf %>% tune_grid(
	resamples = folds,
	metrics = metric_set(accuracy, roc_auc, sens, spec, yardstick::precision),
	grid = grid_latin_hypercube(penalty(), size = 5),
	# grid = grid_latin_hypercube(penalty() , mixture(), size = 20),
	control = control_grid(parallel_over = 'resamples')
)

# Find best models
ll_cv %>% collect_metrics() %>% arrange(mean)
```

```
## # A tibble: 25 x 7
##     penalty .metric   .estimator  mean     n std_err .config             
##       <dbl> <chr>     <chr>      <dbl> <int>   <dbl> <chr>               
##  1 4.94e- 2 sens      binary     0.871     5  0.0268 Preprocessor1_Model5
##  2 4.94e- 2 precision binary     0.880     5  0.0246 Preprocessor1_Model5
##  3 3.91e-10 sens      binary     0.886     5  0.0179 Preprocessor1_Model1
##  4 5.89e- 8 sens      binary     0.886     5  0.0179 Preprocessor1_Model2
##  5 8.09e- 6 sens      binary     0.886     5  0.0179 Preprocessor1_Model3
##  6 3.91e-10 precision binary     0.888     5  0.0156 Preprocessor1_Model1
##  7 5.89e- 8 precision binary     0.888     5  0.0156 Preprocessor1_Model2
##  8 8.09e- 6 precision binary     0.888     5  0.0156 Preprocessor1_Model3
##  9 4.09e- 4 sens      binary     0.900     5  0.0139 Preprocessor1_Model4
## 10 4.09e- 4 precision binary     0.919     5  0.0153 Preprocessor1_Model4
## # ... with 15 more rows
```
…
